Collision removal functionality • ISAnalytics
…
If you have the “verbose” option active, a console message will remind you to align other matrices if you have them at a later time.

Support for multi-quantification matrices

If you’d like to avoid the re-alignment phase, you can call collision removal on a multi-quantification matrix obtained via the function comparison_matrix:

# Obtain multi-quantification matrix
multi <- comparison_matrix(matrices)
multi
#> # A tibble: 5,904 x 8
#>    chr   integration_loc… strand GeneName GeneStrand CompleteAmplifi…
#>    <chr>            <int> <chr>  <chr>    <chr>      <chr>           
#>  1 10           100600323 +      HPSE2    -          CLOEXP_POOL6_LT…
#>  2 10           100680154 +      HPSE2    -          CLOEXP_POOL6_LT…
#>  3 10           102326217 +      HIF1AN   +          CLOEXP_POOL6_LT…
#>  4 10           104673785 +      CNNM2    +          CLOEXP_POOL6_LT…
#>  5 10           107801701 +      LOC1053… +          CLOEXP_POOL6_LT…
#>  6 10           107801701 +      LOC1053… +          CLOEXP_POOL6_LT…
#>  7 10           107801701 +      LOC1053… +          CLOEXP_POOL6_LT…
#>  8 10           114347092 +      VTI1A    +          CLOEXP_POOL6_LT…
#>  9 10           116147098 -      AFAP1L2  -          CLOEXP_POOL6_LT…
#> 10 10            11860676 +      PROSER2  +          CLOEXP_POOL6_LT…
#> # … with 5,894 more rows, and 2 more variables: fragmentEstimate <dbl>,
#> #   seqCount <int>
…
