How to use import functions • ISAnalytics
…
        root = root_correct,
        tp_padding = 4,
        dates_format = "dmy",
        separator = "\t"
    )
})
#> *** Association file import summary ***
#> ℹ For detailed report please set option 'ISAnalytics.widgets' to TRUE
#> * Parsing problems detected: TRUE
#> * Date parsing problems: TRUE
#> * Column problems detected: TRUE
#> * NAs found in important columns: TRUE
#> * File system alignment: no problems detected
association_file
#> # A tibble: 49 x 67
#>    ProjectID FUSIONID      PoolID TagSequence SubjectID VectorType VectorID     
#>    <chr>     <chr>         <chr>  <chr>       <chr>     <chr>      <chr>        
#>  1 CLOEXP    LR-ClonalExp… POOL6  LTR10LC10   VA2020-m… lenti      737.pCCLsin.…
#>  2 CLOEXP    LR-ClonalExp… POOL6  LTR11LC11   VA2020-m… lenti      737.pCCLsin.…
#>  3 CLOEXP    LR-ClonalExp… POOL6  LTR12LC12   VA2020-m… lenti      737.pCCLsin.…
#>  4 CLOEXP    LR-ClonalExp… POOL6  LTR13LC13   VA2020-m… lenti      737.pCCLsin.…
#>  5 CLOEXP    LR-ClonalExp… POOL6  LTR29LC29   VA2020-m… lenti      737.pCCLsin.…
#>  6 CLOEXP    LR-ClonalExp… POOL6  LTR30LC30   VA2020-m… lenti      737.pCCLsin.…
#>  7 CLOEXP    LR-ClonalExp… POOL6  LTR31LC31   VA2020-m… lenti      737.pCCLsin.…
#>  8 CLOEXP    LR-ClonalExp… POOL6  LTR32LC32   VA2020-m… lenti      737.pCCLsin.…
#>  9 CLOEXP    LR-ClonalExp… POOL6  LTR48LC48   VA2020-m… lenti      737.pCCLsin.…
#> 10 CLOEXP    LR-ClonalExp… POOL6  LTR49LC49   VA2020-m… lenti      737.pCCLsin.…
#> # … with 39 more rows, and 60 more variables: ExperimentID <chr>, Tissue <chr>,
#> #   TimePoint <chr>, DNAFragmentation <chr>, PCRMethod <chr>,
#> #   TagIDextended <chr>, Keywords <chr>, CellMarker <chr>, TagID <chr>,
#> #   NGSProvider <chr>, NGSTechnology <chr>, ConverrtedFilesDir <chr>,
#> #   ConverrtedFilesName <chr>, SourceFileFolder <chr>, SourceFileNameR1 <chr>,
#> #   SourceFileNameR2 <chr>, DNAnumber <chr>, ReplicateNumber <int>,
#> #   DNAextractionDate <dttm>, DNAngUsed <dbl>, LinearPCRID <chr>,
#> #   LinearPCRDate <dttm>, SonicationDate <dttm>, LigationDate <dttm>,
#> #   1stExpoPCRID <chr>, 1stExpoPCRDate <dttm>, 2ndExpoID <chr>,
…
#>   <fs::path>                                                                    
#> 1 /var/folders/24/8k48jl6d249_n_qfxwsl6xvm0000gn/T/RtmpkTAVe1/fs/VA/CLOEXP/quan…
#> 2 /var/folders/24/8k48jl6d249_n_qfxwsl6xvm0000gn/T/RtmpkTAVe1/fs/VA/CLOEXP/quan…
#> [1] "--- INTEGRATION MATRICES FOUND REPORT ---"
#> # A tibble: 2 x 5
#>   ProjectID concatenatePoolIDSeqRun Anomalies Quantification_type
#>   <chr>     <chr>                   <lgl>     <chr>              
#> 1 CLOEXP    POOL6-1                 FALSE     fragmentEstimate   
#> 2 CLOEXP    POOL6-1                 FALSE     seqCount           
#>   Files_found                                                                   
#>   <fs::path>                                                                    
#> 1 /var/folders/24/8k48jl6d249_n_qfxwsl6xvm0000gn/T/RtmpkTAVe1/fs/VA/CLOEXP/quan…
#> 2 /var/folders/24/8k48jl6d249_n_qfxwsl6xvm0000gn/T/RtmpkTAVe1/fs/VA/CLOEXP/quan…
matrices_auto
#> # A tibble: 1,476 x 8
#>    chr   integration_locus strand GeneName GeneStrand CompleteAmplificationID   
#>    <chr>             <int> <chr>  <chr>    <chr>      <fct>                     
#>  1 10            102326217 +      HIF1AN   +          CLOEXP_POOL6_LTR10LC10_VA…
#>  2 10             20775144 +      MIR4675  +          CLOEXP_POOL6_LTR10LC10_VA…
#>  3 10             24622789 +      KIAA1217 +          CLOEXP_POOL6_LTR10LC10_VA…
#>  4 10             30105047 +      SVIL     -          CLOEXP_POOL6_LTR10LC10_VA…
#>  5 10             32656933 -      EPC1     -          CLOEXP_POOL6_LTR10LC10_VA…
#>  6 10             66717706 +      LOC1019… -          CLOEXP_POOL6_LTR10LC10_VA…
#>  7 10             76391232 -      ADK      +          CLOEXP_POOL6_LTR10LC10_VA…
#>  8 10             85334019 -      LOC1053… -          CLOEXP_POOL6_LTR10LC10_VA…
#>  9 11            107591208 +      SLN      -          CLOEXP_POOL6_LTR10LC10_VA…
#> 10 11            111744171 +      FDXACB1  -          CLOEXP_POOL6_LTR10LC10_VA…
#> # … with 1,466 more rows, and 2 more variables: fragmentEstimate <dbl>,
#> #   seqCount <dbl>
…
#>   <fs::path>                                                                    
#> 1 /var/folders/24/8k48jl6d249_n_qfxwsl6xvm0000gn/T/RtmpkTAVe1/fserr/VA/CLOEXP/q…
#> 2 /var/folders/24/8k48jl6d249_n_qfxwsl6xvm0000gn/T/RtmpkTAVe1/fserr/VA/CLOEXP/q…
#> [1] "--- INTEGRATION MATRICES FOUND REPORT ---"
#> # A tibble: 2 x 5
#>   ProjectID concatenatePoolIDSeqRun Anomalies Quantification_type
#>   <chr>     <chr>                   <lgl>     <chr>              
#> 1 CLOEXP    POOL6-1                 FALSE     fragmentEstimate   
#> 2 CLOEXP    POOL6-1                 FALSE     seqCount           
#>   Files_found                                                                   
#>   <fs::path>                                                                    
#> 1 /var/folders/24/8k48jl6d249_n_qfxwsl6xvm0000gn/T/RtmpkTAVe1/fserr/VA/CLOEXP/q…
#> 2 /var/folders/24/8k48jl6d249_n_qfxwsl6xvm0000gn/T/RtmpkTAVe1/fserr/VA/CLOEXP/q…
matrices_auto
#> # A tibble: 1,476 x 8
#>    chr   integration_locus strand GeneName GeneStrand CompleteAmplificationID   
#>    <chr>             <int> <chr>  <chr>    <chr>      <fct>                     
#>  1 10            102326217 +      HIF1AN   +          CLOEXP_POOL6_LTR10LC10_VA…
#>  2 10             20775144 +      MIR4675  +          CLOEXP_POOL6_LTR10LC10_VA…
#>  3 10             24622789 +      KIAA1217 +          CLOEXP_POOL6_LTR10LC10_VA…
#>  4 10             30105047 +      SVIL     -          CLOEXP_POOL6_LTR10LC10_VA…
#>  5 10             32656933 -      EPC1     -          CLOEXP_POOL6_LTR10LC10_VA…
#>  6 10             66717706 +      LOC1019… -          CLOEXP_POOL6_LTR10LC10_VA…
#>  7 10             76391232 -      ADK      +          CLOEXP_POOL6_LTR10LC10_VA…
#>  8 10             85334019 -      LOC1053… -          CLOEXP_POOL6_LTR10LC10_VA…
#>  9 11            107591208 +      SLN      -          CLOEXP_POOL6_LTR10LC10_VA…
#> 10 11            111744171 +      FDXACB1  -          CLOEXP_POOL6_LTR10LC10_VA…
#> # … with 1,466 more rows, and 2 more variables: fragmentEstimate <dbl>,
#> #   seqCount <dbl>
…
