Grubbs test for Common Insertion Sites (CIS). — CIS_grubbs • ISAnalytics
…
#> 2:      HTR4          +   6
#> 3:    UBE2D2          +  16
#> 4: LINC01133          +  19
#> 5:  PLEKHG4B          -  14
#> 
#> $missing_is
#> $missing_is$absolute
#> [1] 25
#> 
#> $missing_is$perc
#> [1] 1.48
#> 
#> 
#> $cis
#> # A tibble: 501 × 37
#>    GeneName GeneStrand chr       n       mean    sd  median trimmed   mad    min
#>    <chr>    <chr>      <chr> <int>      <dbl> <dbl>   <dbl>   <dbl> <dbl>  <dbl>
#>  1 ABHD16A  -          6         3  31654876     0   3.17e7  3.17e7    0  3.17e7
#>  2 ABHD2    +          15        3  89642998     0   8.96e7  8.96e7    0  8.96e7
#>  3 ACAP2    -          3         2 195107772     0   1.95e8  1.95e8    0  1.95e8
#>  4 ACOX1    -          17       10  73960093. 8844.  7.40e7  7.40e7 4236. 7.40e7
#>  5 ACSM3    +          16        4  20777188     0   2.08e7  2.08e7    0  2.08e7
#>  6 ADD1     +          4         8   2865706. 6694.  2.87e6  2.87e6 8804. 2.86e6
#>  7 ADGRA3   -          4         2  22505019     0   2.25e7  2.25e7    0  2.25e7
#>  8 ADGRB3   +          6         4  69397949     0   6.94e7  6.94e7    0  6.94e7
#>  9 ADGRG3   +          16        3  57716345     0   5.77e7  5.77e7    0  5.77e7
#> 10 AHR      +          7         2  17227687     0   1.72e7  1.72e7    0  1.72e7
#> # ℹ 491 more rows
#> # ℹ 27 more variables: max <dbl>, range <dbl>, skew <dbl>, kurtosis <dbl>,
#> #   n_IS_perGene <int>, min_bp_integration_locus <dbl>,
#> #   max_bp_integration_locus <dbl>, IS_span_bp <dbl>,
#> #   avg_bp_integration_locus <dbl>, median_bp_integration_locus <dbl>,
#> #   distinct_orientations <int>, average_TxLen <dbl>,
#> #   raw_gene_integration_frequency <dbl>, …
…
