Sharing of integration sites between given groups. — is_sharing • ISAnalytics
…
    Examples

data("integration_matrices", package = "ISAnalytics")
data("association_file", package = "ISAnalytics")
aggreg <- aggregate_values_by_key(
    x = integration_matrices,
    association_file = association_file,
    value_cols = c("seqCount", "fragmentEstimate")
)
sharing <- is_sharing(aggreg)
sharing
#> # A tibble: 190 × 9
#>    g1            g2    shared count_g1 count_g2 count_union on_g1 on_g2 on_union
#>    <chr>         <chr>  <int>    <int>    <int>       <int> <dbl> <dbl>    <dbl>
#>  1 PT001_MNC_BM… PT00…     21       54      114         147 38.9   18.4    14.3 
#>  2 PT001_MNC_BM… PT00…     24       54       59          89 44.4   40.7    27.0 
#>  3 PT001_MNC_BM… PT00…     15       54       89         128 27.8   16.9    11.7 
#>  4 PT001_MNC_BM… PT00…     21       54       78         111 38.9   26.9    18.9 
#>  5 PT001_MNC_BM… PT00…      7       54       28          75 13.0   25       9.33
#>  6 PT001_MNC_BM… PT00…      8       54       59         105 14.8   13.6     7.62
#>  7 PT001_MNC_BM… PT00…     20       54       48          82 37.0   41.7    24.4 
#>  8 PT001_MNC_BM… PT00…      4       54       29          79  7.41  13.8     5.06
#>  9 PT001_MNC_BM… PT00…     15       54       43          82 27.8   34.9    18.3 
#> 10 PT001_MNC_BM… PT00…      0       54       98         152  0      0       0   
#> # ℹ 180 more rows
…
