Find the source of IS by evaluating sharing. — iss_source • ISAnalytics
…
aggreg <- aggregate_values_by_key(
    x = integration_matrices,
    association_file = association_file,
    value_cols = c("seqCount", "fragmentEstimate")
)
df1 <- aggreg %>%
    dplyr::filter(.data$Tissue == "BM")
df2 <- aggreg %>%
    dplyr::filter(.data$Tissue == "PB")
source <- iss_source(df1, df2)
#>   |                                                                              |                                                                      |   0%  |                                                                              |===================================                                   |  50%  |                                                                              |======================================================================| 100%
#> 
source
#> $PT001
#> # A tibble: 161 × 14
#>    g1      g1_SubjectID g1_CellMarker g1_Tissue g1_TimePoint g2     g2_SubjectID
#>    <chr>   <chr>        <chr>         <chr>            <int> <chr>  <chr>       
#>  1 PT001_… PT001        MNC           BM                  30 PT001… PT001       
#>  2 PT001_… PT001        MNC           BM                  30 PT001… PT001       
#>  3 PT001_… PT001        MNC           BM                  30 PT001… PT001       
#>  4 PT001_… PT001        MNC           BM                  30 PT001… PT001       
#>  5 PT001_… PT001        MNC           BM                  30 PT001… PT001       
#>  6 PT001_… PT001        MNC           BM                  30 PT001… PT001       
#>  7 PT001_… PT001        MNC           BM                  30 PT001… PT001       
#>  8 PT001_… PT001        MNC           BM                  30 PT001… PT001       
#>  9 PT001_… PT001        MNC           BM                  60 PT001… PT001       
#> 10 PT001_… PT001        MNC           BM                  60 PT001… PT001       
#> # … with 151 more rows, and 7 more variables: g2_CellMarker <chr>,
#> #   g2_Tissue <chr>, g2_TimePoint <int>, chr <chr>, integration_locus <dbl>,
#> #   strand <chr>, sharing_perc <dbl>
#> 
#> $PT002
#> # A tibble: 77 × 14
#>    g1      g1_SubjectID g1_CellMarker g1_Tissue g1_TimePoint g2     g2_SubjectID
#>    <chr>   <chr>        <chr>         <chr>            <int> <chr>  <chr>       
#>  1 PT002_… PT002        MNC           BM                 360 PT002… PT002       
#>  2 PT002_… PT002        MNC           BM                 360 PT002… PT002       
#>  3 PT002_… PT002        MNC           BM                  30 PT002… PT002       
#>  4 PT002_… PT002        MNC           BM                 180 PT002… PT002       
#>  5 PT002_… PT002        MNC           BM                 180 PT002… PT002       
#>  6 PT002_… PT002        MNC           BM                  60 PT002… PT002       
#>  7 PT002_… PT002        MNC           BM                  90 PT002… PT002       
#>  8 PT002_… PT002        MNC           BM                 360 PT002… PT002       
#>  9 PT002_… PT002        MNC           BM                 360 PT002… PT002       
#> 10 PT002_… PT002        MNC           BM                  30 PT002… PT002       
#> # … with 67 more rows, and 7 more variables: g2_CellMarker <chr>,
#> #   g2_Tissue <chr>, g2_TimePoint <int>, chr <chr>, integration_locus <dbl>,
#> #   strand <chr>, sharing_perc <dbl>
…
