left_join implementation for ISADataFrame. — left_join.ISADataFrame • ISAnalytics
…
    An ISADataFrame

    Examples

path <- system.file("extdata", "ex_annotated_ISMatrix.tsv.xz",
    package = "ISAnalytics"
)
isadf1 <- import_single_Vispa2Matrix(path)
isadf2 <- import_single_Vispa2Matrix(path)
isadf1 %>% dplyr::left_join(isadf2)
#> Joining, by = c("chr", "integration_locus", "strand", "GeneName", "GeneStrand", "CompleteAmplificationID", "Value")
#> mandatoryVars:  chr,  integration_locus,  strand 
#> metadata:  GeneName,  GeneStrand,  CompleteAmplificationID 
#> # A tibble: 53 x 7
#>    chr   integration_locus strand GeneName GeneStrand CompleteAmplificat…  Value
#>    <chr>             <int> <chr>  <chr>    <chr>      <chr>                <dbl>
#>  1 1               8744319 -      RERE     -          exp_2               85050.
#>  2 1               8744319 -      RERE     -          exp_3               36911.
#>  3 1              89274341 +      PKN2     +          exp_2               12567.
#>  4 1              89274341 +      PKN2     +          exp_3               61320.
#>  5 2              33962502 +      LINC013… +          exp_2               20247.
#>  6 2              33962502 +      LINC013… +          exp_3               98047.
#>  7 2              42521808 +      EML4     +          exp_2               73181.
#>  8 3             157949340 -      RSRC1    +          exp_2               59267.
#>  9 3             137078019 -      IL20RB   +          exp_1               23932.
#> 10 3             137078019 -      IL20RB   +          exp_2               97769.
#> # … with 43 more rows
…
