Current dynamic vars specifications getters. — mandatory_IS_vars • ISAnalytics
…
# Names and types
association_file_columns(TRUE)
#> # A tibble: 71 × 5
#>    names        types transform flag     tag       
#>    <chr>        <chr> <list>    <chr>    <chr>     
#>  1 ProjectID    char  <NULL>    required project_id
#>  2 FUSIONID     char  <NULL>    optional fusion_id 
#>  3 PoolID       char  <NULL>    required pool_id   
#>  4 TagSequence  char  <NULL>    required tag_seq   
#>  5 SubjectID    char  <NULL>    required subject   
#>  6 VectorType   char  <NULL>    optional NA        
#>  7 VectorID     char  <NULL>    required vector_id 
#>  8 ExperimentID char  <NULL>    optional NA        
#>  9 Tissue       char  <NULL>    required tissue    
#> 10 TimePoint    char  <formula> required tp_days   
#> # ℹ 61 more rows
…
