Computes user specified functions on numerical columns and updates the metadata data frame accordingly. — sample_statistics • ISAnalytics
…
    Examples

data("integration_matrices", package = "ISAnalytics")
data("association_file", package = "ISAnalytics")
stats <- sample_statistics(
    x = integration_matrices,
    metadata = association_file,
    value_columns = c("seqCount", "fragmentEstimate")
)
stats
#> $x
#> # A tibble: 53 × 38
#>    CompleteAmplificationID          seqCount_sum seqCount_count seqCount_shannon
#>    <chr>                                   <dbl>          <int>            <dbl>
#>  1 PJ01_POOL01_LTR19LC2_PT001_PT00…         3029             22             1.82
#>  2 PJ01_POOL01_LTR27LC94_PT001_PT0…        80610             67             3.02
#>  3 PJ01_POOL01_LTR29LC90_PT001_PT0…           30              8             1.89
#>  4 PJ01_POOL01_LTR37LC18_PT001_PT0…           44             10             2.00
#>  5 PJ01_POOL01_LTR37LC2_PT001_PT00…        50859             82             3.76
#>  6 PJ01_POOL01_LTR49LC12_PT001_PT0…           33             10             1.93
#>  7 PJ01_POOL01_LTR53LC22_PT001_PT0…            1              1             0   
#>  8 PJ01_POOL01_LTR53LC32_PT001_PT0…       129867             72             3.24
#>  9 PJ01_POOL01_LTR57LC20_PT001_PT0…        57443             20             2.41
#> 10 PJ01_POOL01_LTR5LC64_PT001_PT00…        41488             39             2.89
#> # ℹ 43 more rows
#> # ℹ 34 more variables: seqCount_simpson <dbl>, seqCount_invsimpson <dbl>,
#> #   fragmentEstimate_sum <dbl>, fragmentEstimate_count <int>,
#> #   fragmentEstimate_shannon <dbl>, fragmentEstimate_simpson <dbl>,
#> #   fragmentEstimate_invsimpson <dbl>, seqCount_describe_vars <dbl>,
#> #   seqCount_describe_n <dbl>, seqCount_describe_mean <dbl>,
#> #   seqCount_describe_sd <dbl>, seqCount_describe_median <dbl>, …
…
