Compute CIS and Grubbs test over different time points and groups. — CIS_grubbs_overtime • ISAnalytics
…
#> 2 15    CRELD2    -         
#> 3 16    UBE2D2    +         
#> 4 19    LINC01133 +         
#> 5 6     HTR4      +         
#> 
#> $missing_is
#> $missing_is$absolute
#> [1] 25
#> 
#> $missing_is$perc
#> [1] 2.33
#> 
#> 
#> $cis
#> # A tibble: 932 × 39
#>    GeneName GeneSt…¹ chr       n   mean    sd median trimmed   mad    min    max
#>    <chr>    <chr>    <chr> <int>  <dbl> <dbl>  <dbl>   <dbl> <dbl>  <dbl>  <dbl>
#>  1 ABHD2    +        15        1 8.96e7    NA 8.96e7  8.96e7     0 8.96e7 8.96e7
#>  2 ACAP2    -        3         1 1.95e8    NA 1.95e8  1.95e8     0 1.95e8 1.95e8
#>  3 ACOX1    -        17        1 7.40e7    NA 7.40e7  7.40e7     0 7.40e7 7.40e7
#>  4 ADD1     +        4         1 2.86e6    NA 2.86e6  2.86e6     0 2.86e6 2.86e6
#>  5 ANKEF1   +        20        1 1.00e7    NA 1.00e7  1.00e7     0 1.00e7 1.00e7
#>  6 ANKRD52  -        12        1 5.66e7    NA 5.66e7  5.66e7     0 5.66e7 5.66e7
#>  7 ASAP1    -        8         1 1.31e8    NA 1.31e8  1.31e8     0 1.31e8 1.31e8
#>  8 ATF1     +        12        1 5.12e7    NA 5.12e7  5.12e7     0 5.12e7 5.12e7
#>  9 ATF7     -        12        1 5.40e7    NA 5.40e7  5.40e7     0 5.40e7 5.40e7
#> 10 C6orf106 -        6         1 3.46e7    NA 3.46e7  3.46e7     0 3.46e7 3.46e7
#> # … with 922 more rows, 28 more variables: range <dbl>, skew <dbl>,
#> #   kurtosis <dbl>, n_IS_perGene <int>, min_bp_integration_locus <dbl>,
#> #   max_bp_integration_locus <dbl>, IS_span_bp <dbl>,
#> #   avg_bp_integration_locus <dbl>, median_bp_integration_locus <dbl>,
#> #   distinct_orientations <int>, average_TxLen <dbl>,
#> #   raw_gene_integration_frequency <dbl>,
#> #   integration_frequency_withtolerance <dbl>, …
…
