Grubbs test for Common Insertion Sites (CIS). — CIS_grubbs • ISAnalytics
…
cis <- CIS_grubbs(integration_matrices)
#> Warning: missing genes in refgenes table
#> ℹ A total of 5 genes were found in the input data but not in the refgene table. This may be caused by a mismatch in the annotation phase of the matrix. Here is a summary: 
#> # A tibble: 5 × 3
#>   GeneName  GeneStrand chr  
#>   <chr>     <chr>      <chr>
#> 1 CRELD2    -          15   
#> 2 HTR4      +          6    
#> 3 LINC01133 +          19   
#> 4 PLEKHG4B  -          14   
#> 5 UBE2D2    +          16   
#> ℹ NOTE: missing genes will be removed from the final output! Review results carefully
cis
#> $cis
#> # A tibble: 501 × 39
#>    GeneName GeneStrand chr   n_IS_perGene min_bp_integration_l… max_bp_integrat…
#>    <chr>    <chr>      <chr>        <int>                 <dbl>            <dbl>
#>  1 ABHD16A  -          6                1              31654876         31654876
#>  2 ABHD2    +          15               1              89642998         89642998
#>  3 ACAP2    -          3                1             195107772        195107772
#>  4 ACOX1    -          17               3              73953431         73972782
#>  5 ACSM3    +          16               1              20777188         20777188
#>  6 ADD1     +          4                3               2859237          2871962
#>  7 ADGRA3   -          4                1              22505019         22505019
#>  8 ADGRB3   +          6                1              69397949         69397949
#>  9 ADGRG3   +          16               1              57716345         57716345
#> 10 AHR      +          7                1              17227687         17227687
#> # … with 491 more rows, and 33 more variables: IS_span_bp <dbl>,
#> #   avg_bp_integration_locus <dbl>, median_bp_integration_locus <dbl>,
#> #   distinct_orientations <int>, vars <dbl>, n <dbl>, mean <dbl>, sd <dbl>,
#> #   median <dbl>, trimmed <dbl>, mad <dbl>, min <dbl>, max <dbl>, range <dbl>,
#> #   skew <dbl>, kurtosis <dbl>, se <dbl>, average_TxLen <dbl>,
#> #   raw_gene_integration_frequency <dbl>,
#> #   integration_frequency_withtolerance <dbl>, …
…
