Sharing of integration sites between given groups. — is_sharing • ISAnalytics
…
#>  9 PT002_MNC_PB_0180     32
#> 10 PT002_MNC_BM_0030     98
#> 11 PT002_MNC_PB_0060     18
#> 12 PT002_MNC_PB_0030     15
#> 13 PT001_MNC_PB_0030     28
#> 14 PT002_MNC_BM_0180     69
#> 15 PT001_MNC_BM_0090     59
#> 16 PT002_MNC_BM_0060     33
#> 17 PT002_MNC_BM_0090     40
#> 18 PT001_MNC_PB_0090     48
#> 19 PT001_MNC_PB_0360     43
#> 20 PT002_MNC_PB_0090     24
#> 
#> $sharing
#> # A tibble: 400 × 6
#>    group1            group2            shared  on_g1  on_g2 on_union
#>    <chr>             <chr>              <int>  <dbl>  <dbl>    <dbl>
#>  1 PT001_MNC_BM_0030 PT001_MNC_BM_0030     54 100    100     100    
#>  2 PT001_MNC_BM_0030 PT001_MNC_BM_0060     21  38.9   18.4    14.3  
#>  3 PT001_MNC_BM_0060 PT001_MNC_BM_0030     21  18.4   38.9    14.3  
#>  4 PT001_MNC_BM_0030 PT001_MNC_BM_0180     15  27.8   16.9    11.7  
#>  5 PT001_MNC_BM_0180 PT001_MNC_BM_0030     15  16.9   27.8    11.7  
#>  6 PT001_MNC_BM_0030 PT001_MNC_BM_0360     21  38.9   26.9    18.9  
#>  7 PT001_MNC_BM_0360 PT001_MNC_BM_0030     21  26.9   38.9    18.9  
#>  8 PT001_MNC_BM_0030 PT002_MNC_BM_0360      1   1.85   1.10    0.694
#>  9 PT002_MNC_BM_0360 PT001_MNC_BM_0030      1   1.10   1.85    0.694
#> 10 PT001_MNC_BM_0030 PT001_MNC_PB_0060      8  14.8   13.6     7.62 
#> # … with 390 more rows
…
