Find the source of IS by evaluating sharing. — iss_source • ISAnalytics
…
data("integration_matrices", package = "ISAnalytics")
data("association_file", package = "ISAnalytics")
aggreg <- aggregate_values_by_key(
    x = integration_matrices,
    association_file = association_file,
    value_cols = c("seqCount", "fragmentEstimate")
)
df1 <- aggreg %>%
    dplyr::filter(.data$Tissue == "BM")
df2 <- aggreg %>%
    dplyr::filter(.data$Tissue == "PB")
source <- iss_source(df1, df2)
source
#> $PT001
#> # A tibble: 161 × 14
#>    g1      g1_Su…¹ g1_Ce…² g1_Ti…³ g1_Ti…⁴ g2    g2_Su…⁵ g2_Ce…⁶ g2_Ti…⁷ g2_Ti…⁸
#>    <chr>   <chr>   <chr>   <chr>     <int> <chr> <chr>   <chr>   <chr>     <int>
#>  1 PT001_… PT001   MNC     BM           30 PT00… PT001   MNC     PB           60
#>  2 PT001_… PT001   MNC     BM           30 PT00… PT001   MNC     PB           60
#>  3 PT001_… PT001   MNC     BM           30 PT00… PT001   MNC     PB           60
#>  4 PT001_… PT001   MNC     BM           30 PT00… PT001   MNC     PB           60
#>  5 PT001_… PT001   MNC     BM           30 PT00… PT001   MNC     PB           60
#>  6 PT001_… PT001   MNC     BM           30 PT00… PT001   MNC     PB           60
#>  7 PT001_… PT001   MNC     BM           30 PT00… PT001   MNC     PB           60
#>  8 PT001_… PT001   MNC     BM           30 PT00… PT001   MNC     PB           60
#>  9 PT001_… PT001   MNC     BM           60 PT00… PT001   MNC     PB           60
#> 10 PT001_… PT001   MNC     BM           60 PT00… PT001   MNC     PB           60
#> # … with 151 more rows, 4 more variables: chr <chr>, integration_locus <dbl>,
#> #   strand <chr>, sharing_perc <dbl>, and abbreviated variable names
#> #   ¹​g1_SubjectID, ²​g1_CellMarker, ³​g1_Tissue, ⁴​g1_TimePoint, ⁵​g2_SubjectID,
#> #   ⁶​g2_CellMarker, ⁷​g2_Tissue, ⁸​g2_TimePoint
#> 
#> $PT002
#> # A tibble: 77 × 14
#>    g1      g1_Su…¹ g1_Ce…² g1_Ti…³ g1_Ti…⁴ g2    g2_Su…⁵ g2_Ce…⁶ g2_Ti…⁷ g2_Ti…⁸
#>    <chr>   <chr>   <chr>   <chr>     <int> <chr> <chr>   <chr>   <chr>     <int>
#>  1 PT002_… PT002   MNC     BM          360 PT00… PT002   MNC     PB          360
#>  2 PT002_… PT002   MNC     BM          360 PT00… PT002   MNC     PB          360
#>  3 PT002_… PT002   MNC     BM           30 PT00… PT002   MNC     PB          360
#>  4 PT002_… PT002   MNC     BM          180 PT00… PT002   MNC     PB          360
#>  5 PT002_… PT002   MNC     BM          180 PT00… PT002   MNC     PB          360
#>  6 PT002_… PT002   MNC     BM           60 PT00… PT002   MNC     PB          360
#>  7 PT002_… PT002   MNC     BM           90 PT00… PT002   MNC     PB          360
#>  8 PT002_… PT002   MNC     BM          360 PT00… PT002   MNC     PB          180
#>  9 PT002_… PT002   MNC     BM          360 PT00… PT002   MNC     PB          180
#> 10 PT002_… PT002   MNC     BM           30 PT00… PT002   MNC     PB          180
#> # … with 67 more rows, 4 more variables: chr <chr>, integration_locus <dbl>,
#> #   strand <chr>, sharing_perc <dbl>, and abbreviated variable names
#> #   ¹​g1_SubjectID, ²​g1_CellMarker, ³​g1_Tissue, ⁴​g1_TimePoint, ⁵​g2_SubjectID,
#> #   ⁶​g2_CellMarker, ⁷​g2_Tissue, ⁸​g2_TimePoint
…
