Computes user specified functions on numerical columns and updates the metadata data frame accordingly. — sample_statistics • ISAnalytics
…
    Examples

data("integration_matrices", package = "ISAnalytics")
data("association_file", package = "ISAnalytics")
stats <- sample_statistics(
  x = integration_matrices,
  metadata = association_file,
  value_columns = c("seqCount", "fragmentEstimate")
)
stats

#> $x
#> # A tibble: 53 × 38
#>    CompleteAmplificationID    seqCount_shannon seqCount_simpson seqCount_invsim…
#>    <chr>                                 <dbl>            <dbl>            <dbl>
#>  1 PJ01_POOL01_LTR19LC2_PT00…             1.82            0.804             5.11
#>  2 PJ01_POOL01_LTR27LC94_PT0…             3.02            0.904            10.4 
#>  3 PJ01_POOL01_LTR29LC90_PT0…             1.89            0.829             5.84
#>  4 PJ01_POOL01_LTR37LC18_PT0…             2.00            0.833             5.98
#>  5 PJ01_POOL01_LTR37LC2_PT00…             3.76            0.962            26.6 
#>  6 PJ01_POOL01_LTR49LC12_PT0…             1.93            0.819             5.53
#>  7 PJ01_POOL01_LTR53LC22_PT0…             0               0                 1   
#>  8 PJ01_POOL01_LTR53LC32_PT0…             3.24            0.918            12.2 
#>  9 PJ01_POOL01_LTR57LC20_PT0…             2.41            0.898             9.78
#> 10 PJ01_POOL01_LTR5LC64_PT00…             2.89            0.938            16.2 
#> # … with 43 more rows, and 34 more variables: seqCount_sum <dbl>,
#> #   seqCount_count <int>, fragmentEstimate_shannon <dbl>,
#> #   fragmentEstimate_simpson <dbl>, fragmentEstimate_invsimpson <dbl>,
#> #   fragmentEstimate_sum <dbl>, fragmentEstimate_count <int>,
#> #   seqCount_describe_vars <dbl>, seqCount_describe_n <dbl>,
#> #   seqCount_describe_mean <dbl>, seqCount_describe_sd <dbl>,
#> #   seqCount_describe_median <dbl>, seqCount_describe_trimmed <dbl>, …
…
