Working with aggregate functions • ISAnalytics
…
Import your association file

Import integration matrices via import_parallel_Vispa2Matrices()

Perform aggregation

data("integration_matrices", package = "ISAnalytics")
data("association_file", package = "ISAnalytics")
aggreg <- aggregate_values_by_key(
  x = integration_matrices, 
  association_file = association_file,
  value_cols = c("seqCount", "fragmentEstimate")
)

#> # A tibble: 1,074 × 11
#>    chr   integration_locus strand GeneName GeneStrand SubjectID CellMarker
#>    <chr>             <dbl> <chr>  <chr>    <chr>      <chr>     <chr>     
#>  1 1               8464757 -      RERE     -          PT001     MNC       
#>  2 1               8464757 -      RERE     -          PT001     MNC       
#>  3 1               8607357 +      RERE     -          PT001     MNC       
#>  4 1               8607357 +      RERE     -          PT001     MNC       
#>  5 1               8607357 +      RERE     -          PT001     MNC       
#>  6 1               8607362 -      RERE     -          PT001     MNC       
#>  7 1               8850362 +      RERE     -          PT002     MNC       
#>  8 1              11339120 +      UBIAD1   +          PT001     MNC       
#>  9 1              11339120 +      UBIAD1   +          PT001     MNC       
#> 10 1              11339120 +      UBIAD1   +          PT001     MNC       
#>    Tissue TimePoint seqCount_sum fragmentEstimate_sum
#>    <chr>  <chr>            <dbl>                <dbl>
#>  1 BM     0030               542                 3.01
#>  2 BM     0060                 1                 1.00
#>  3 BM     0060                 1                 1.00
#>  4 BM     0180              1096                 5.01
#>  5 BM     0360               330                34.1 
#>  6 BM     0180              1702                 4.01
#>  7 BM     0360               562                 3.01
#>  8 BM     0060              1605                 8.03
#>  9 PB     0060                 1                 1.00
#> 10 PB     0180                 1                 1.00
#> # … with 1,064 more rows
…
The function has several different parameters that have default values that can be changed according to user preference.

Changing the key value

You can change the value of the parameter key as you see fit. This parameter should contain one or multiple columns of the association file that you want to include in the grouping when performing the aggregation. The default value is set to c("SubjectID", "CellMarker", "Tissue", "TimePoint") (same default key as the aggregate_metadata function).

agg1 <- aggregate_values_by_key(
    x = integration_matrices,
    association_file = association_file,
    key = c("SubjectID", "ProjectID"),
    value_cols = c("seqCount", "fragmentEstimate")
)

#> # A tibble: 577 × 9
#>    chr   integration_locus strand GeneName GeneStrand SubjectID ProjectID
#>    <chr>             <dbl> <chr>  <chr>    <chr>      <chr>     <chr>    
#>  1 1               8464757 -      RERE     -          PT001     PJ01     
#>  2 1               8607357 +      RERE     -          PT001     PJ01     
#>  3 1               8607362 -      RERE     -          PT001     PJ01     
#>  4 1               8850362 +      RERE     -          PT002     PJ01     
#>  5 1              11339120 +      UBIAD1   +          PT001     PJ01     
#>  6 1              12341466 -      VPS13D   +          PT002     PJ01     
#>  7 1              14034054 -      PRDM2    +          PT002     PJ01     
#>  8 1              16186297 -      SPEN     +          PT001     PJ01     
#>  9 1              16602483 +      FBXO42   -          PT001     PJ01     
#> 10 1              16602483 +      FBXO42   -          PT002     PJ01     
#>    seqCount_sum fragmentEstimate_sum
#>           <dbl>                <dbl>
#>  1          543                 4.01
#>  2         1427                40.1 
#>  3         1702                 4.01
#>  4          562                 3.01
#>  5         1607                10.0 
#>  6         1843                 8.05
#>  7         1938                 3.01
#>  8         3494                16.1 
#>  9         2947                 9.04
#> 10           30                 2.00
#> # … with 567 more rows

Changing the lambda value

The lambda parameter indicates the function(s) to be applied to the values for aggregation. lambda must be a named list of either functions or purrr-style lambdas: if you would like to specify additional parameters to the function the second option is recommended. The only important note on functions is that they should perform some kind of aggregation on numeric values: this means in practical terms they need to accept a vector of numeric/integer values as input and produce a SINGLE value as output. Valid options for this purpose might be: sum, mean, median, min, max and so on.

agg2 <- aggregate_values_by_key(
    x = integration_matrices,
    association_file = association_file,
    key = "SubjectID",
    lambda = list(mean = ~ mean(.x, na.rm = TRUE)),
    value_cols = c("seqCount", "fragmentEstimate")
)

#> # A tibble: 577 × 8
#>    chr   integration_locus strand GeneName GeneStrand SubjectID seqCount_mean
#>    <chr>             <dbl> <chr>  <chr>    <chr>      <chr>             <dbl>
#>  1 1               8464757 -      RERE     -          PT001              272.
#>  2 1               8607357 +      RERE     -          PT001              285.
#>  3 1               8607362 -      RERE     -          PT001              851 
#>  4 1               8850362 +      RERE     -          PT002              562 
#>  5 1              11339120 +      UBIAD1   +          PT001              321.
#>  6 1              12341466 -      VPS13D   +          PT002             1843 
#>  7 1              14034054 -      PRDM2    +          PT002             1938 
#>  8 1              16186297 -      SPEN     +          PT001              699.
#>  9 1              16602483 +      FBXO42   -          PT001              982.
#> 10 1              16602483 +      FBXO42   -          PT002               30 
#>    fragmentEstimate_mean
#>                    <dbl>
#>  1                  2.01
#>  2                  8.02
#>  3                  2.01
#>  4                  3.01
#>  5                  2.01
#>  6                  8.05
#>  7                  3.01
#>  8                  3.22
#>  9                  3.01
#> 10                  2.00
#> # … with 567 more rows

Note that, when specifying purrr-style lambdas (formulas), the first parameter needs to be set to .x, other parameters can be set as usual.

You can also use in lambda functions that produce data frames or lists. In this case all variables from the produced data frame will be included in the final data frame. For example:

agg3 <- aggregate_values_by_key(
    x = integration_matrices,
    association_file = association_file,
    key = "SubjectID",
    lambda = list(describe = ~ list(psych::describe(.x))),
    value_cols = c("seqCount", "fragmentEstimate")
)

#> # A tibble: 577 × 8
#>    chr   integration_locus strand GeneName GeneStrand SubjectID
#>    <chr>             <dbl> <chr>  <chr>    <chr>      <chr>    
#>  1 1               8464757 -      RERE     -          PT001    
#>  2 1               8607357 +      RERE     -          PT001    
#>  3 1               8607362 -      RERE     -          PT001    
#>  4 1               8850362 +      RERE     -          PT002    
#>  5 1              11339120 +      UBIAD1   +          PT001    
#>  6 1              12341466 -      VPS13D   +          PT002    
#>  7 1              14034054 -      PRDM2    +          PT002    
#>  8 1              16186297 -      SPEN     +          PT001    
#>  9 1              16602483 +      FBXO42   -          PT001    
#> 10 1              16602483 +      FBXO42   -          PT002    
#>    seqCount_describe fragmentEstimate_describe
#>    <list>            <list>                   
#>  1 <psych [1 × 13]>  <psych [1 × 13]>         
#>  2 <psych [1 × 13]>  <psych [1 × 13]>         
#>  3 <psych [1 × 13]>  <psych [1 × 13]>         
#>  4 <psych [1 × 13]>  <psych [1 × 13]>         
#>  5 <psych [1 × 13]>  <psych [1 × 13]>         
#>  6 <psych [1 × 13]>  <psych [1 × 13]>         
#>  7 <psych [1 × 13]>  <psych [1 × 13]>         
#>  8 <psych [1 × 13]>  <psych [1 × 13]>         
#>  9 <psych [1 × 13]>  <psych [1 × 13]>         
#> 10 <psych [1 × 13]>  <psych [1 × 13]>         
#> # … with 567 more rows

Changing the value_cols value

The value_cols parameter tells the function on which numeric columns of x the functions should be applied. Note that every function contained in lambda will be applied to every column in value_cols: resulting columns will be named as “original name_function applied”.

agg4 <- aggregate_values_by_key(
    x = integration_matrices,
    association_file = association_file,
    key = "SubjectID",
    lambda = list(sum = sum, mean = mean),
    value_cols = c("seqCount", "fragmentEstimate")
)

#> # A tibble: 577 × 10
#>    chr   integration_locus strand GeneName GeneStrand SubjectID seqCount_sum
#>    <chr>             <dbl> <chr>  <chr>    <chr>      <chr>            <dbl>
#>  1 1               8464757 -      RERE     -          PT001              543
#>  2 1               8607357 +      RERE     -          PT001             1427
#>  3 1               8607362 -      RERE     -          PT001             1702
#>  4 1               8850362 +      RERE     -          PT002              562
#>  5 1              11339120 +      UBIAD1   +          PT001             1607
#>  6 1              12341466 -      VPS13D   +          PT002             1843
#>  7 1              14034054 -      PRDM2    +          PT002             1938
#>  8 1              16186297 -      SPEN     +          PT001             3494
#>  9 1              16602483 +      FBXO42   -          PT001             2947
#> 10 1              16602483 +      FBXO42   -          PT002               30
#>    seqCount_mean fragmentEstimate_sum fragmentEstimate_mean
#>            <dbl>                <dbl>                 <dbl>
#>  1          272.                 4.01                  2.01
#>  2          285.                40.1                   8.02
#>  3          851                  4.01                  2.01
#>  4          562                  3.01                  3.01
#>  5          321.                10.0                   2.01
#>  6         1843                  8.05                  8.05
#>  7         1938                  3.01                  3.01
#>  8          699.                16.1                   3.22
#>  9          982.                 9.04                  3.01
#> 10           30                  2.00                  2.00
#> # … with 567 more rows

Changing the group value

The group parameter should contain all other variables to include in the grouping besides key. By default this contains c("chr", "integration_locus","strand", "GeneName", "GeneStrand"). You can change this grouping as you see fit, if you don’t want to add any other variable to the key, just set it to NULL.

agg5 <- aggregate_values_by_key(
    x = integration_matrices,
    association_file = association_file,
    key = "SubjectID",
    lambda = list(sum = sum, mean = mean),
    group = c(mandatory_IS_vars()),
    value_cols = c("seqCount", "fragmentEstimate")
)

#> # A tibble: 577 × 8
#>    chr   integration_locus strand SubjectID seqCount_sum seqCount_mean
#>    <chr>             <dbl> <chr>  <chr>            <dbl>         <dbl>
#>  1 1               8464757 -      PT001              543          272.
#>  2 1               8607357 +      PT001             1427          285.
#>  3 1               8607362 -      PT001             1702          851 
#>  4 1               8850362 +      PT002              562          562 
#>  5 1              11339120 +      PT001             1607          321.
#>  6 1              12341466 -      PT002             1843         1843 
#>  7 1              14034054 -      PT002             1938         1938 
#>  8 1              16186297 -      PT001             3494          699.
#>  9 1              16602483 +      PT001             2947          982.
#> 10 1              16602483 +      PT002               30           30 
#>    fragmentEstimate_sum fragmentEstimate_mean
#>                   <dbl>                 <dbl>
#>  1                 4.01                  2.01
#>  2                40.1                   8.02
#>  3                 4.01                  2.01
#>  4                 3.01                  3.01
#>  5                10.0                   2.01
#>  6                 8.05                  8.05
#>  7                 3.01                  3.01
#>  8                16.1                   3.22
#>  9                 9.04                  3.01
#> 10                 2.00                  2.00
#> # … with 567 more rows
…
