Collision removal functionality • ISAnalytics
…
If you have the “verbose” option active, a console message will remind you to align other matrices if you have them at a later time.

Support for multi-quantification matrices

If you’d like to avoid the re-alignment phase, you can call collision removal on a multi-quantification matrix obtained via the function comparison_matrix:

# Obtain multi-quantification matrix
multi <- comparison_matrix(matrices)
multi
#> # A tibble: 5,904 x 8
#>    chr   integration_locus strand GeneName GeneStrand CompleteAmplificationID   
#>    <chr>             <int> <chr>  <chr>    <chr>      <fct>                     
#>  1 10            102326217 +      HIF1AN   +          CLOEXP_POOL6_LTR10LC10_VA…
#>  2 10             20775144 +      MIR4675  +          CLOEXP_POOL6_LTR10LC10_VA…
#>  3 10             24622789 +      KIAA1217 +          CLOEXP_POOL6_LTR10LC10_VA…
#>  4 10             30105047 +      SVIL     -          CLOEXP_POOL6_LTR10LC10_VA…
#>  5 10             32656933 -      EPC1     -          CLOEXP_POOL6_LTR10LC10_VA…
#>  6 10             66717706 +      LOC1019… -          CLOEXP_POOL6_LTR10LC10_VA…
#>  7 10             76391232 -      ADK      +          CLOEXP_POOL6_LTR10LC10_VA…
#>  8 10             85334019 -      LOC1053… -          CLOEXP_POOL6_LTR10LC10_VA…
#>  9 11            107591208 +      SLN      -          CLOEXP_POOL6_LTR10LC10_VA…
#> 10 11            111744171 +      FDXACB1  -          CLOEXP_POOL6_LTR10LC10_VA…
#> # … with 5,894 more rows, and 2 more variables: fragmentEstimate <dbl>,
#> #   seqCount <dbl>
…
