How to use import functions • ISAnalytics
…
You can call the function with patterns set to NULL if you don’t wish to match anything:

matrices_auto <- import_parallel_Vispa2Matrices_auto(
  association_file = refined_af,
  root = NULL,
  quantification_type = c("fragmentEstimate","seqCount"),
  matrix_type = "annotated",
  workers = 2,
  patterns = NULL,
  matching_opt = "ANY" # Same if you choose "ALL" or "OPTIONAL"
)
matrices_auto
#> $fragmentEstimate
#> # A tibble: 1,476 x 7
#>    chr   integration_locus strand GeneName GeneStrand CompleteAmplificati… Value
#>    <chr>             <int> <chr>  <chr>    <chr>      <chr>                <dbl>
#>  1 1             100903226 +      CDC14A   +          CLOEXP_POOL6_LTR30L…  1.00
#>  2 1             101724095 -      S1PR1    +          CLOEXP_POOL6_LTR10L…  2.00
#>  3 1             108208779 +      VAV3     -          CLOEXP_POOL6_LTR32L…  1.00
#>  4 1             108412817 -      VAV3     -          CLOEXP_POOL6_LTR10L…  1.00
#>  5 1             108412817 -      VAV3     -          CLOEXP_POOL6_LTR12L…  1.00
#>  6 1             108511440 +      VAV3-AS1 +          CLOEXP_POOL6_LTR49L…  1.00
#>  7 1             109689050 +      KIAA1324 +          CLOEXP_POOL6_LTR29L…  1.00
#>  8 1             111411778 +      CD53     +          CLOEXP_POOL6_LTR10L…  1.00
#>  9 1             111411778 +      CD53     +          CLOEXP_POOL6_LTR32L…  1.00
#> 10 1             111466980 -      LRIF1    -          CLOEXP_POOL6_LTR10L…  1.00
#> # … with 1,466 more rows
#> 
#> $seqCount
#> # A tibble: 1,476 x 7
#>    chr   integration_locus strand GeneName GeneStrand CompleteAmplificati… Value
#>    <chr>             <int> <chr>  <chr>    <chr>      <chr>                <int>
#>  1 1             100903226 +      CDC14A   +          CLOEXP_POOL6_LTR30L…     1
#>  2 1             101724095 -      S1PR1    +          CLOEXP_POOL6_LTR10L…     2
#>  3 1             108208779 +      VAV3     -          CLOEXP_POOL6_LTR32L…     1
#>  4 1             108412817 -      VAV3     -          CLOEXP_POOL6_LTR10L…     1
#>  5 1             108412817 -      VAV3     -          CLOEXP_POOL6_LTR12L…     1
#>  6 1             108511440 +      VAV3-AS1 +          CLOEXP_POOL6_LTR49L…     1
#>  7 1             109689050 +      KIAA1324 +          CLOEXP_POOL6_LTR29L…     1
#>  8 1             111411778 +      CD53     +          CLOEXP_POOL6_LTR10L…     1
#>  9 1             111411778 +      CD53     +          CLOEXP_POOL6_LTR32L…     1
#> 10 1             111466980 -      LRIF1    -          CLOEXP_POOL6_LTR10L…     1
#> # … with 1,466 more rows
…
#> ignored.
refined_af_err <- association_file_fserr %>% 
  dplyr::filter(.data$ProjectID == "CLOEXP")
matrices_auto2 <- import_parallel_Vispa2Matrices_auto(
  association_file = refined_af_err,
  root = NULL,
  quantification_type = c("fragmentEstimate","seqCount"),
  matrix_type = "annotated",
  workers = 2,
  patterns = "NoMate",
  matching_opt = "ANY" # Same if you choose "ALL" or "OPTIONAL"
)
matrices_auto
#> $fragmentEstimate
#> # A tibble: 1,476 x 7
#>    chr   integration_locus strand GeneName GeneStrand CompleteAmplificati… Value
#>    <chr>             <int> <chr>  <chr>    <chr>      <chr>                <dbl>
#>  1 1             100903226 +      CDC14A   +          CLOEXP_POOL6_LTR30L…  1.00
#>  2 1             101724095 -      S1PR1    +          CLOEXP_POOL6_LTR10L…  2.00
#>  3 1             108208779 +      VAV3     -          CLOEXP_POOL6_LTR32L…  1.00
#>  4 1             108412817 -      VAV3     -          CLOEXP_POOL6_LTR10L…  1.00
#>  5 1             108412817 -      VAV3     -          CLOEXP_POOL6_LTR12L…  1.00
#>  6 1             108511440 +      VAV3-AS1 +          CLOEXP_POOL6_LTR49L…  1.00
#>  7 1             109689050 +      KIAA1324 +          CLOEXP_POOL6_LTR29L…  1.00
#>  8 1             111411778 +      CD53     +          CLOEXP_POOL6_LTR10L…  1.00
#>  9 1             111411778 +      CD53     +          CLOEXP_POOL6_LTR32L…  1.00
#> 10 1             111466980 -      LRIF1    -          CLOEXP_POOL6_LTR10L…  1.00
#> # … with 1,466 more rows
#> 
#> $seqCount
#> # A tibble: 1,476 x 7
#>    chr   integration_locus strand GeneName GeneStrand CompleteAmplificati… Value
#>    <chr>             <int> <chr>  <chr>    <chr>      <chr>                <int>
#>  1 1             100903226 +      CDC14A   +          CLOEXP_POOL6_LTR30L…     1
#>  2 1             101724095 -      S1PR1    +          CLOEXP_POOL6_LTR10L…     2
#>  3 1             108208779 +      VAV3     -          CLOEXP_POOL6_LTR32L…     1
#>  4 1             108412817 -      VAV3     -          CLOEXP_POOL6_LTR10L…     1
#>  5 1             108412817 -      VAV3     -          CLOEXP_POOL6_LTR12L…     1
#>  6 1             108511440 +      VAV3-AS1 +          CLOEXP_POOL6_LTR49L…     1
#>  7 1             109689050 +      KIAA1324 +          CLOEXP_POOL6_LTR29L…     1
#>  8 1             111411778 +      CD53     +          CLOEXP_POOL6_LTR10L…     1
#>  9 1             111411778 +      CD53     +          CLOEXP_POOL6_LTR32L…     1
#> 10 1             111466980 -      LRIF1    -          CLOEXP_POOL6_LTR10L…     1
#> # … with 1,466 more rows
…
