Getting started with ISAnalytics • ISAnalytics
…
matrix <- import_single_Vispa2Matrix(fs::path(data_folder, matrix_file),
    sample_names_to = "ID"
)
#> Warning: compression format not supported by fread
#> ℹ File will be read using readr
#> Reading file...
#> ℹ Mode: classic
#> Reshaping...
#> *** File info *** 
#> • --- Annotated: FALSE
#> • --- Dimensions: 31757 x 16
#> • --- Read mode: classic
#> • --- Sample count: 15
matrix
#> # A tibble: 33,776 × 3
#>    BarcodeSeq             ID      Value
#>    <chr>                  <chr>   <dbl>
#>  1 AAAAAAAACACGGAGAACGACG PB21_C3     2
#>  2 AAAAAAAACGCGAACAACTACG PB21_C3     1
#>  3 AAAAAAAACTCAAAAAAGAAAT BM_C3       1
#>  4 AAAAAAAATTTACACAAAGAAA BM_A4       1
#>  5 AAAAAAAATTTTTAAACGTACC BM_A0       1
#>  6 AAAAAACATATCTATAGTTACC BM_A0       1
#>  7 AAAAAAGACGACGATAGGCACG PB21_C1     1
#>  8 AAAAAAGACGTTTATAGGTGTA PB21_A2     1
#>  9 AAAAAAGACTGCGACAAAAGGG BM_A4       1
#> 10 AAAAAAGACTTTGATAACCACG PB21_C3     1
#> # ℹ 33,766 more rows
…
# Aggregation and new stats ----
agg_key <- c("SubjectID")
agg <- aggregate_values_by_key(matrix, af,
    key = agg_key,
    group = "BarcodeSeq",
    join_af_by = pcr_id_column()
)
agg
#> # A tibble: 33,267 × 3
#>    BarcodeSeq             SubjectID Value_sum
#>    <chr>                  <chr>         <dbl>
#>  1 AAAAAAAACACGGAGAACGACG C3                2
#>  2 AAAAAAAACGCGAACAACTACG C3                1
#>  3 AAAAAAAACTCAAAAAAGAAAT C3                1
#>  4 AAAAAAAATTTACACAAAGAAA A4                1
#>  5 AAAAAAAATTTTTAAACGTACC A0                1
#>  6 AAAAAACATATCTATAGTTACC A0                1
#>  7 AAAAAAGACGACGATAGGCACG C1                1
#>  8 AAAAAAGACGTTTATAGGTGTA A2                1
#>  9 AAAAAAGACTGCGACAAAAGGG A4                1
#> 10 AAAAAAGACTTTGATAACCACG C3                1
#> # ℹ 33,257 more rows
…
# Abundance ----
abundance <- compute_abundance(agg, columns = "Value_sum", key = agg_key)
abundance
#> # A tibble: 33,267 × 5
#>    BarcodeSeq  SubjectID Value_sum Value_sum_RelAbundance Value_sum_PercAbunda…¹
#>    <chr>       <chr>         <dbl>                  <dbl>                  <dbl>
#>  1 AAAAAAAACA… C3                2             0.00000586               0.000586
#>  2 AAAAAAAACG… C3                1             0.00000293               0.000293
#>  3 AAAAAAAACT… C3                1             0.00000293               0.000293
#>  4 AAAAAAAATT… A4                1             0.00000211               0.000211
#>  5 AAAAAAAATT… A0                1             0.00000306               0.000306
#>  6 AAAAAACATA… A0                1             0.00000306               0.000306
#>  7 AAAAAAGACG… C1                1             0.00000250               0.000250
#>  8 AAAAAAGACG… A2                1             0.00000802               0.000802
#>  9 AAAAAAGACT… A4                1             0.00000211               0.000211
#> 10 AAAAAAGACT… C3                1             0.00000293               0.000293
#> # ℹ 33,257 more rows
#> # ℹ abbreviated name: ¹​Value_sum_PercAbundance
…
