Sharing analyses with ISAnalytics • ISAnalytics
…
NOTE: aggregating data is not mandatory, since sharing functions in
ISAnalytics only count distinct integration sites and do not require any
quantification. The only important thing is that columns that are
included in the specified key are also included in the input
matrices.

## Aggregation by standard key
agg <- aggregate_values_by_key(integration_matrices,
    association_file,
    value_cols = c("seqCount", "fragmentEstimate")
)
agg <- agg |> dplyr::filter(TimePoint %in% c("0030", "0060"))

#> # A tibble: 419 × 11
#>    chr   integration_locus strand GeneName GeneStrand SubjectID CellMarker
#>    <chr>             <dbl> <chr>  <chr>    <chr>      <chr>     <chr>     
#>  1 1               8464757 -      RERE     -          PT001     MNC       
#>  2 1               8464757 -      RERE     -          PT001     MNC       
#>  3 1               8607357 +      RERE     -          PT001     MNC       
#>  4 1              11339120 +      UBIAD1   +          PT001     MNC       
#>  5 1              11339120 +      UBIAD1   +          PT001     MNC       
#>  6 1              16186297 -      SPEN     +          PT001     MNC       
#>  7 1              16186297 -      SPEN     +          PT001     MNC       
#>  8 1              16602483 +      FBXO42   -          PT001     MNC       
#>  9 1              25337264 -      MIR4425  +          PT002     MNC       
#> 10 1              25337264 -      MIR4425  +          PT002     MNC       
#>    Tissue TimePoint seqCount_sum fragmentEstimate_sum
#>    <chr>  <chr>            <dbl>                <dbl>
#>  1 BM     0030               542                 3.01
#>  2 BM     0060                 1                 1.00
#>  3 BM     0060                 1                 1.00
#>  4 BM     0060              1605                 8.03
#>  5 PB     0060                 1                 1.00
#>  6 BM     0030                 1                 1.00
#>  7 PB     0060                 1                 1.00
#>  8 BM     0060              2947                 9.04
#>  9 BM     0030                23                 9.14
#> 10 PB     0060                36                 7.07
#> # ℹ 409 more rows
…
sharing_1 <- is_sharing(agg,
    group_key = c(
        "SubjectID", "CellMarker",
        "Tissue", "TimePoint"
    ),
    n_comp = 2,
    is_count = TRUE,
    relative_is_sharing = TRUE,
    minimal = TRUE,
    include_self_comp = FALSE,
    keep_genomic_coord = TRUE
)
sharing_1
#> # A tibble: 28 × 10
#>    g1           g2    shared count_g1 count_g2 count_union  on_g1 on_g2 on_union
#>    <chr>        <chr>  <int>    <int>    <int>       <int>  <dbl> <dbl>    <dbl>
#>  1 PT001_MNC_B… PT00…     21       54      114         147 38.9   18.4    14.3  
#>  2 PT001_MNC_B… PT00…      7       54       28          75 13.0   25       9.33 
#>  3 PT001_MNC_B… PT00…      8       54       59         105 14.8   13.6     7.62 
#>  4 PT001_MNC_B… PT00…      0       54       98         152  0      0       0    
#>  5 PT001_MNC_B… PT00…      1       54       33          86  1.85   3.03    1.16 
#>  6 PT001_MNC_B… PT00…      0       54       15          69  0      0       0    
#>  7 PT001_MNC_B… PT00…      0       54       18          72  0      0       0    
#>  8 PT001_MNC_B… PT00…      7      114       28         135  6.14  25       5.19 
#>  9 PT001_MNC_B… PT00…     29      114       59         144 25.4   49.2    20.1  
#> 10 PT001_MNC_B… PT00…      1      114       98         211  0.877  1.02    0.474
#> # ℹ 18 more rows
#> # ℹ 1 more variable: is_coord <list>
…
sharing_1_a <- is_sharing(agg,
    group_key = c(
        "SubjectID", "CellMarker",
        "Tissue", "TimePoint"
    ),
    n_comp = 3,
    is_count = TRUE,
    relative_is_sharing = TRUE,
    minimal = TRUE,
    include_self_comp = FALSE,
    keep_genomic_coord = TRUE
)
sharing_1_a
#> # A tibble: 56 × 13
#>    g1      g2    g3    shared count_g1 count_g2 count_g3 count_union on_g1 on_g2
#>    <chr>   <chr> <chr>  <int>    <int>    <int>    <int>       <int> <dbl> <dbl>
#>  1 PT001_… PT00… PT00…      5       54      114       28         166  9.26  4.39
#>  2 PT001_… PT00… PT00…      6       54      114       59         175 11.1   5.26
#>  3 PT001_… PT00… PT00…      0       54      114       98         244  0     0   
#>  4 PT001_… PT00… PT00…      0       54      114       33         179  0     0   
#>  5 PT001_… PT00… PT00…      0       54      114       15         161  0     0   
#>  6 PT001_… PT00… PT00…      0       54      114       18         165  0     0   
#>  7 PT001_… PT00… PT00…      1       54       28       59         117  1.85  3.57
#>  8 PT001_… PT00… PT00…      0       54       28       98         173  0     0   
#>  9 PT001_… PT00… PT00…      0       54       28       33         107  0     0   
#> 10 PT001_… PT00… PT00…      0       54       28       15          90  0     0   
#> # ℹ 46 more rows
#> # ℹ 3 more variables: on_g3 <dbl>, on_union <dbl>, is_coord <list>
…
sharing_1_b <- is_sharing(agg,
    group_key = c(
        "SubjectID", "CellMarker",
        "Tissue", "TimePoint"
    ),
    n_comp = 2,
    is_count = TRUE,
    relative_is_sharing = TRUE,
    minimal = FALSE,
    include_self_comp = TRUE
)
sharing_1_b
#> # A tibble: 64 × 9
#>    g1            g2    shared count_g1 count_g2 count_union on_g1 on_g2 on_union
#>    <chr>         <chr>  <int>    <int>    <int>       <int> <dbl> <dbl>    <dbl>
#>  1 PT001_MNC_BM… PT00…     54       54       54          54 100   100      100  
#>  2 PT001_MNC_BM… PT00…    114      114      114         114 100   100      100  
#>  3 PT001_MNC_PB… PT00…     59       59       59          59 100   100      100  
#>  4 PT002_MNC_BM… PT00…     98       98       98          98 100   100      100  
#>  5 PT002_MNC_PB… PT00…     18       18       18          18 100   100      100  
#>  6 PT002_MNC_PB… PT00…     15       15       15          15 100   100      100  
#>  7 PT001_MNC_PB… PT00…     28       28       28          28 100   100      100  
#>  8 PT002_MNC_BM… PT00…     33       33       33          33 100   100      100  
#>  9 PT001_MNC_BM… PT00…     21       54      114         147  38.9  18.4     14.3
#> 10 PT001_MNC_BM… PT00…     21      114       54         147  18.4  38.9     14.3
#> # ℹ 54 more rows
…
sharing_2 <- is_sharing(agg,
    group_keys = list(
        g1 = c(
            "SubjectID", "CellMarker",
            "Tissue", "TimePoint"
        ),
        g2 = c("SubjectID", "CellMarker"),
        g3 = c("CellMarker", "Tissue")
    )
)
sharing_2
#> # A tibble: 32 × 12
#>    g1    g2    g3    shared count_g1 count_g2 count_g3 count_union  on_g1  on_g2
#>    <chr> <chr> <chr>  <int>    <int>    <int>    <int>       <int>  <dbl>  <dbl>
#>  1 PT00… PT00… MNC_…     54       54      186      271         310 100    29.0  
#>  2 PT00… PT00… MNC_…     14       54      186      103         211  25.9   7.53 
#>  3 PT00… PT00… MNC_…      1       54      137      271         281   1.85  0.730
#>  4 PT00… PT00… MNC_…      0       54      137      103         252   0     0    
#>  5 PT00… PT00… MNC_…    114      114      186      271         310 100    61.3  
#>  6 PT00… PT00… MNC_…     35      114      186      103         211  30.7  18.8  
#>  7 PT00… PT00… MNC_…      2      114      137      271         281   1.75  1.46 
#>  8 PT00… PT00… MNC_…      2      114      137      103         292   1.75  1.46 
#>  9 PT00… PT00… MNC_…      9       28      186      271         310  32.1   4.84 
#> 10 PT00… PT00… MNC_…     28       28      186      103         211 100    15.1  
#> # ℹ 22 more rows
#> # ℹ 2 more variables: on_g3 <dbl>, on_union <dbl>
…
keys <- list(
    g1 = c("SubjectID", "CellMarker", "Tissue"),
    g2 = c("SubjectID", "Tissue"),
    g3 = c("SubjectID", "CellMarker", "Tissue")
)

sharing_4 <- is_sharing(df1, df2, df3, group_keys = keys)
sharing_4
#> # A tibble: 32 × 12
#>    g1      g2    g3    shared count_g1 count_g2 count_g3 count_union on_g1 on_g2
#>    <chr>   <chr> <chr>  <int>    <int>    <int>    <int>       <int> <dbl> <dbl>
#>  1 PT001_… PT00… PT00…     21       54      114      147         147 38.9  18.4 
#>  2 PT001_… PT00… PT00…      0       54      114      126         271  0     0   
#>  3 PT001_… PT00… PT00…      8       54       59      147         175 14.8  13.6 
#>  4 PT001_… PT00… PT00…      0       54       59      126         229  0     0   
#>  5 PT001_… PT00… PT00…      1       54       33      147         179  1.85  3.03
#>  6 PT001_… PT00… PT00…      1       54       33      126         179  1.85  3.03
#>  7 PT001_… PT00… PT00…      0       54       18      147         165  0     0   
#>  8 PT001_… PT00… PT00…      0       54       18      126         185  0     0   
#>  9 PT001_… PT00… PT00…      7       28      114      147         166 25     6.14
#> 10 PT001_… PT00… PT00…      0       28      114      126         260  0     0   
#> # ℹ 22 more rows
#> # ℹ 2 more variables: on_g3 <dbl>, on_union <dbl>
…
sharing_5 <- is_sharing(agg,
    group_keys = list(
        g1 = c(
            "SubjectID", "CellMarker",
            "Tissue", "TimePoint"
        ),
        g2 = c("SubjectID", "CellMarker"),
        g3 = c("CellMarker", "Tissue")
    ), table_for_venn = TRUE
)
sharing_5
#> # A tibble: 32 × 13
#>    g1    g2    g3    shared count_g1 count_g2 count_g3 count_union  on_g1  on_g2
#>    <chr> <chr> <chr>  <int>    <int>    <int>    <int>       <int>  <dbl>  <dbl>
#>  1 PT00… PT00… MNC_…     54       54      186      271         310 100    29.0  
#>  2 PT00… PT00… MNC_…     14       54      186      103         211  25.9   7.53 
#>  3 PT00… PT00… MNC_…      1       54      137      271         281   1.85  0.730
#>  4 PT00… PT00… MNC_…      0       54      137      103         252   0     0    
#>  5 PT00… PT00… MNC_…    114      114      186      271         310 100    61.3  
#>  6 PT00… PT00… MNC_…     35      114      186      103         211  30.7  18.8  
#>  7 PT00… PT00… MNC_…      2      114      137      271         281   1.75  1.46 
#>  8 PT00… PT00… MNC_…      2      114      137      103         292   1.75  1.46 
#>  9 PT00… PT00… MNC_…      9       28      186      271         310  32.1   4.84 
#> 10 PT00… PT00… MNC_…     28       28      186      103         211 100    15.1  
#> # ℹ 22 more rows
#> # ℹ 3 more variables: on_g3 <dbl>, on_union <dbl>, truth_tbl_venn <list>
…
