Setting up the workflow and first steps • ISAnalytics
…
matrix_path <- fs::path(
    fs_path$root,
    "PJ01",
    "quantification",
    "POOL01-1",
    "PJ01_POOL01-1_seqCount_matrix.no0.annotated.tsv.gz"
)
matrix <- import_single_Vispa2Matrix(matrix_path)

#> # A tibble: 802 × 7
#>    chr   integration_locus strand GeneName     GeneStrand CompleteAmplificatio…¹
#>    <chr>             <int> <chr>  <chr>        <chr>      <chr>                 
#>  1 16             68164148 +      NFATC3       +          PJ01_POOL01_LTR75LC38…
#>  2 4             129390130 +      LOC100507487 +          PJ01_POOL01_LTR75LC38…
#>  3 5              84009671 -      EDIL3        -          PJ01_POOL01_LTR75LC38…
#>  4 12             54635693 -      CBX5         -          PJ01_POOL01_LTR75LC38…
#>  5 2             181930711 +      UBE2E3       +          PJ01_POOL01_LTR75LC38…
#>  6 20             35920986 +      MANBAL       +          PJ01_POOL01_LTR75LC38…
#>  7 22             26900625 +      TFIP11       -          PJ01_POOL01_LTR75LC38…
#>  8 3             106580075 +      LINC00882    -          PJ01_POOL01_LTR75LC38…
#>  9 1              16186297 -      SPEN         +          PJ01_POOL01_LTR75LC38…
#> 10 17             61712419 +      MAP3K3       +          PJ01_POOL01_LTR75LC38…
#> # ℹ 792 more rows
#> # ℹ abbreviated name: ¹​CompleteAmplificationID
#> # ℹ 1 more variable: Value <int>
…
Import integration matrices via
import_parallel_Vispa2Matrices()

Perform aggregation

data("integration_matrices", package = "ISAnalytics")
data("association_file", package = "ISAnalytics")
aggreg <- aggregate_values_by_key(
    x = integration_matrices,
    association_file = association_file,
    value_cols = c("seqCount", "fragmentEstimate")
)

#> # A tibble: 1,074 × 11
#>    chr   integration_locus strand GeneName GeneStrand SubjectID CellMarker
#>    <chr>             <dbl> <chr>  <chr>    <chr>      <chr>     <chr>     
#>  1 1               8464757 -      RERE     -          PT001     MNC       
#>  2 1               8464757 -      RERE     -          PT001     MNC       
#>  3 1               8607357 +      RERE     -          PT001     MNC       
#>  4 1               8607357 +      RERE     -          PT001     MNC       
#>  5 1               8607357 +      RERE     -          PT001     MNC       
#>  6 1               8607362 -      RERE     -          PT001     MNC       
#>  7 1               8850362 +      RERE     -          PT002     MNC       
#>  8 1              11339120 +      UBIAD1   +          PT001     MNC       
#>  9 1              11339120 +      UBIAD1   +          PT001     MNC       
#> 10 1              11339120 +      UBIAD1   +          PT001     MNC       
#>    Tissue TimePoint seqCount_sum fragmentEstimate_sum
#>    <chr>  <chr>            <dbl>                <dbl>
#>  1 BM     0030               542                 3.01
#>  2 BM     0060                 1                 1.00
#>  3 BM     0060                 1                 1.00
#>  4 BM     0180              1096                 5.01
#>  5 BM     0360               330                34.1 
#>  6 BM     0180              1702                 4.01
#>  7 BM     0360               562                 3.01
#>  8 BM     0060              1605                 8.03
#>  9 PB     0060                 1                 1.00
#> 10 PB     0180                 1                 1.00
#> # ℹ 1,064 more rows
…
You can change the value of the parameter key as you see fit. This
parameter should contain one or multiple columns of the association file
that you want to include in the grouping when performing the
aggregation. The default value is set to
c("SubjectID", "CellMarker", "Tissue", "TimePoint") (same
default key as the aggregate_metadata function).

agg1 <- aggregate_values_by_key(
    x = integration_matrices,
    association_file = association_file,
    key = c("SubjectID", "ProjectID"),
    value_cols = c("seqCount", "fragmentEstimate")
)

#> # A tibble: 577 × 9
#>    chr   integration_locus strand GeneName GeneStrand SubjectID ProjectID
#>    <chr>             <dbl> <chr>  <chr>    <chr>      <chr>     <chr>    
#>  1 1               8464757 -      RERE     -          PT001     PJ01     
#>  2 1               8607357 +      RERE     -          PT001     PJ01     
#>  3 1               8607362 -      RERE     -          PT001     PJ01     
#>  4 1               8850362 +      RERE     -          PT002     PJ01     
#>  5 1              11339120 +      UBIAD1   +          PT001     PJ01     
#>  6 1              12341466 -      VPS13D   +          PT002     PJ01     
#>  7 1              14034054 -      PRDM2    +          PT002     PJ01     
#>  8 1              16186297 -      SPEN     +          PT001     PJ01     
#>  9 1              16602483 +      FBXO42   -          PT001     PJ01     
#> 10 1              16602483 +      FBXO42   -          PT002     PJ01     
#>    seqCount_sum fragmentEstimate_sum
#>           <dbl>                <dbl>
#>  1          543                 4.01
#>  2         1427                40.1 
#>  3         1702                 4.01
#>  4          562                 3.01
#>  5         1607                10.0 
#>  6         1843                 8.05
#>  7         1938                 3.01
#>  8         3494                16.1 
#>  9         2947                 9.04
#> 10           30                 2.00
#> # ℹ 567 more rows
…
agg2 <- aggregate_values_by_key(
    x = integration_matrices,
    association_file = association_file,
    key = "SubjectID",
    lambda = list(mean = ~ mean(.x, na.rm = TRUE)),
    value_cols = c("seqCount", "fragmentEstimate")
)

#> # A tibble: 577 × 8
#>    chr   integration_locus strand GeneName GeneStrand SubjectID seqCount_mean
#>    <chr>             <dbl> <chr>  <chr>    <chr>      <chr>             <dbl>
#>  1 1               8464757 -      RERE     -          PT001              272.
#>  2 1               8607357 +      RERE     -          PT001              285.
#>  3 1               8607362 -      RERE     -          PT001              851 
#>  4 1               8850362 +      RERE     -          PT002              562 
#>  5 1              11339120 +      UBIAD1   +          PT001              321.
#>  6 1              12341466 -      VPS13D   +          PT002             1843 
#>  7 1              14034054 -      PRDM2    +          PT002             1938 
#>  8 1              16186297 -      SPEN     +          PT001              699.
#>  9 1              16602483 +      FBXO42   -          PT001              982.
#> 10 1              16602483 +      FBXO42   -          PT002               30 
#>    fragmentEstimate_mean
#>                    <dbl>
#>  1                  2.01
#>  2                  8.02
#>  3                  2.01
#>  4                  3.01
#>  5                  2.01
#>  6                  8.05
#>  7                  3.01
#>  8                  3.22
#>  9                  3.01
#> 10                  2.00
#> # ℹ 567 more rows
…
You can also use in lambda functions that produce data
frames or lists. In this case all variables from the produced data frame
will be included in the final data frame. For example:

agg3 <- aggregate_values_by_key(
    x = integration_matrices,
    association_file = association_file,
    key = "SubjectID",
    lambda = list(describe = ~ list(psych::describe(.x))),
    value_cols = c("seqCount", "fragmentEstimate")
)

#> # A tibble: 577 × 8
#>    chr   integration_locus strand GeneName GeneStrand SubjectID
#>    <chr>             <dbl> <chr>  <chr>    <chr>      <chr>    
#>  1 1               8464757 -      RERE     -          PT001    
#>  2 1               8607357 +      RERE     -          PT001    
#>  3 1               8607362 -      RERE     -          PT001    
#>  4 1               8850362 +      RERE     -          PT002    
#>  5 1              11339120 +      UBIAD1   +          PT001    
#>  6 1              12341466 -      VPS13D   +          PT002    
#>  7 1              14034054 -      PRDM2    +          PT002    
#>  8 1              16186297 -      SPEN     +          PT001    
#>  9 1              16602483 +      FBXO42   -          PT001    
#> 10 1              16602483 +      FBXO42   -          PT002    
#>    seqCount_describe fragmentEstimate_describe
#>    <list>            <list>                   
#>  1 <psych [1 × 13]>  <psych [1 × 13]>         
#>  2 <psych [1 × 13]>  <psych [1 × 13]>         
#>  3 <psych [1 × 13]>  <psych [1 × 13]>         
#>  4 <psych [1 × 13]>  <psych [1 × 13]>         
#>  5 <psych [1 × 13]>  <psych [1 × 13]>         
#>  6 <psych [1 × 13]>  <psych [1 × 13]>         
#>  7 <psych [1 × 13]>  <psych [1 × 13]>         
#>  8 <psych [1 × 13]>  <psych [1 × 13]>         
#>  9 <psych [1 × 13]>  <psych [1 × 13]>         
#> 10 <psych [1 × 13]>  <psych [1 × 13]>         
#> # ℹ 567 more rows
…
The value_cols parameter tells the function on which
numeric columns of x the functions should be applied. Note that every
function contained in lambda will be applied to every
column in value_cols: resulting columns will be named as
“original name_function applied”.

agg4 <- aggregate_values_by_key(
    x = integration_matrices,
    association_file = association_file,
    key = "SubjectID",
    lambda = list(sum = sum, mean = mean),
    value_cols = c("seqCount", "fragmentEstimate")
)

#> # A tibble: 577 × 10
#>    chr   integration_locus strand GeneName GeneStrand SubjectID seqCount_sum
#>    <chr>             <dbl> <chr>  <chr>    <chr>      <chr>            <dbl>
#>  1 1               8464757 -      RERE     -          PT001              543
#>  2 1               8607357 +      RERE     -          PT001             1427
#>  3 1               8607362 -      RERE     -          PT001             1702
#>  4 1               8850362 +      RERE     -          PT002              562
#>  5 1              11339120 +      UBIAD1   +          PT001             1607
#>  6 1              12341466 -      VPS13D   +          PT002             1843
#>  7 1              14034054 -      PRDM2    +          PT002             1938
#>  8 1              16186297 -      SPEN     +          PT001             3494
#>  9 1              16602483 +      FBXO42   -          PT001             2947
#> 10 1              16602483 +      FBXO42   -          PT002               30
#>    seqCount_mean fragmentEstimate_sum fragmentEstimate_mean
#>            <dbl>                <dbl>                 <dbl>
#>  1          272.                 4.01                  2.01
#>  2          285.                40.1                   8.02
#>  3          851                  4.01                  2.01
#>  4          562                  3.01                  3.01
#>  5          321.                10.0                   2.01
#>  6         1843                  8.05                  8.05
#>  7         1938                  3.01                  3.01
#>  8          699.                16.1                   3.22
#>  9          982.                 9.04                  3.01
#> 10           30                  2.00                  2.00
#> # ℹ 567 more rows
…
agg5 <- aggregate_values_by_key(
    x = integration_matrices,
    association_file = association_file,
    key = "SubjectID",
    lambda = list(sum = sum, mean = mean),
    group = c(mandatory_IS_vars()),
    value_cols = c("seqCount", "fragmentEstimate")
)

#> # A tibble: 577 × 8
#>    chr   integration_locus strand SubjectID seqCount_sum seqCount_mean
#>    <chr>             <dbl> <chr>  <chr>            <dbl>         <dbl>
#>  1 1               8464757 -      PT001              543          272.
#>  2 1               8607357 +      PT001             1427          285.
#>  3 1               8607362 -      PT001             1702          851 
#>  4 1               8850362 +      PT002              562          562 
#>  5 1              11339120 +      PT001             1607          321.
#>  6 1              12341466 -      PT002             1843         1843 
#>  7 1              14034054 -      PT002             1938         1938 
#>  8 1              16186297 -      PT001             3494          699.
#>  9 1              16602483 +      PT001             2947          982.
#> 10 1              16602483 +      PT002               30           30 
#>    fragmentEstimate_sum fragmentEstimate_mean
#>                   <dbl>                 <dbl>
#>  1                 4.01                  2.01
#>  2                40.1                   8.02
#>  3                 4.01                  2.01
#>  4                 3.01                  3.01
#>  5                10.0                   2.01
#>  6                 8.05                  8.05
#>  7                 3.01                  3.01
#>  8                16.1                   3.22
#>  9                 9.04                  3.01
#> 10                 2.00                  2.00
#> # ℹ 567 more rows
…
NOTE: aggregating data is not mandatory, since sharing functions in
ISAnalytics only count distinct integration sites and do not require any
quantification. The only important thing is that columns that are
included in the specified key are also included in the input
matrices.

## Aggregation by standard key
agg <- aggregate_values_by_key(integration_matrices,
    association_file,
    value_cols = c("seqCount", "fragmentEstimate")
)
agg <- agg |> dplyr::filter(TimePoint %in% c("0030", "0060"))

#> # A tibble: 419 × 11
#>    chr   integration_locus strand GeneName GeneStrand SubjectID CellMarker
#>    <chr>             <dbl> <chr>  <chr>    <chr>      <chr>     <chr>     
#>  1 1               8464757 -      RERE     -          PT001     MNC       
#>  2 1               8464757 -      RERE     -          PT001     MNC       
#>  3 1               8607357 +      RERE     -          PT001     MNC       
#>  4 1              11339120 +      UBIAD1   +          PT001     MNC       
#>  5 1              11339120 +      UBIAD1   +          PT001     MNC       
#>  6 1              16186297 -      SPEN     +          PT001     MNC       
#>  7 1              16186297 -      SPEN     +          PT001     MNC       
#>  8 1              16602483 +      FBXO42   -          PT001     MNC       
#>  9 1              25337264 -      MIR4425  +          PT002     MNC       
#> 10 1              25337264 -      MIR4425  +          PT002     MNC       
#>    Tissue TimePoint seqCount_sum fragmentEstimate_sum
#>    <chr>  <chr>            <dbl>                <dbl>
#>  1 BM     0030               542                 3.01
#>  2 BM     0060                 1                 1.00
#>  3 BM     0060                 1                 1.00
#>  4 BM     0060              1605                 8.03
#>  5 PB     0060                 1                 1.00
#>  6 BM     0030                 1                 1.00
#>  7 PB     0060                 1                 1.00
#>  8 BM     0060              2947                 9.04
#>  9 BM     0030                23                 9.14
#> 10 PB     0060                36                 7.07
#> # ℹ 409 more rows
…
sharing_1 <- is_sharing(agg,
    group_key = c(
        "SubjectID", "CellMarker",
        "Tissue", "TimePoint"
    ),
    n_comp = 2,
    is_count = TRUE,
    relative_is_sharing = TRUE,
    minimal = TRUE,
    include_self_comp = FALSE,
    keep_genomic_coord = TRUE
)
sharing_1
#> # A tibble: 28 × 10
#>    g1           g2    shared count_g1 count_g2 count_union  on_g1 on_g2 on_union
#>    <chr>        <chr>  <int>    <int>    <int>       <int>  <dbl> <dbl>    <dbl>
#>  1 PT001_MNC_B… PT00…     21       54      114         147 38.9   18.4    14.3  
#>  2 PT001_MNC_B… PT00…      7       54       28          75 13.0   25       9.33 
#>  3 PT001_MNC_B… PT00…      8       54       59         105 14.8   13.6     7.62 
#>  4 PT001_MNC_B… PT00…      0       54       98         152  0      0       0    
#>  5 PT001_MNC_B… PT00…      1       54       33          86  1.85   3.03    1.16 
#>  6 PT001_MNC_B… PT00…      0       54       15          69  0      0       0    
#>  7 PT001_MNC_B… PT00…      0       54       18          72  0      0       0    
#>  8 PT001_MNC_B… PT00…      7      114       28         135  6.14  25       5.19 
#>  9 PT001_MNC_B… PT00…     29      114       59         144 25.4   49.2    20.1  
#> 10 PT001_MNC_B… PT00…      1      114       98         211  0.877  1.02    0.474
#> # ℹ 18 more rows
#> # ℹ 1 more variable: is_coord <list>
…
sharing_1_a <- is_sharing(agg,
    group_key = c(
        "SubjectID", "CellMarker",
        "Tissue", "TimePoint"
    ),
    n_comp = 3,
    is_count = TRUE,
    relative_is_sharing = TRUE,
    minimal = TRUE,
    include_self_comp = FALSE,
    keep_genomic_coord = TRUE
)
sharing_1_a
#> # A tibble: 56 × 13
#>    g1      g2    g3    shared count_g1 count_g2 count_g3 count_union on_g1 on_g2
#>    <chr>   <chr> <chr>  <int>    <int>    <int>    <int>       <int> <dbl> <dbl>
#>  1 PT001_… PT00… PT00…      5       54      114       28         166  9.26  4.39
#>  2 PT001_… PT00… PT00…      6       54      114       59         175 11.1   5.26
#>  3 PT001_… PT00… PT00…      0       54      114       98         244  0     0   
#>  4 PT001_… PT00… PT00…      0       54      114       33         179  0     0   
#>  5 PT001_… PT00… PT00…      0       54      114       15         161  0     0   
#>  6 PT001_… PT00… PT00…      0       54      114       18         165  0     0   
#>  7 PT001_… PT00… PT00…      1       54       28       59         117  1.85  3.57
#>  8 PT001_… PT00… PT00…      0       54       28       98         173  0     0   
#>  9 PT001_… PT00… PT00…      0       54       28       33         107  0     0   
#> 10 PT001_… PT00… PT00…      0       54       28       15          90  0     0   
#> # ℹ 46 more rows
#> # ℹ 3 more variables: on_g3 <dbl>, on_union <dbl>, is_coord <list>
…
sharing_1_b <- is_sharing(agg,
    group_key = c(
        "SubjectID", "CellMarker",
        "Tissue", "TimePoint"
    ),
    n_comp = 2,
    is_count = TRUE,
    relative_is_sharing = TRUE,
    minimal = FALSE,
    include_self_comp = TRUE
)
sharing_1_b
#> # A tibble: 64 × 9
#>    g1            g2    shared count_g1 count_g2 count_union on_g1 on_g2 on_union
#>    <chr>         <chr>  <int>    <int>    <int>       <int> <dbl> <dbl>    <dbl>
#>  1 PT001_MNC_BM… PT00…     54       54       54          54 100   100      100  
#>  2 PT001_MNC_BM… PT00…    114      114      114         114 100   100      100  
#>  3 PT001_MNC_PB… PT00…     59       59       59          59 100   100      100  
#>  4 PT002_MNC_BM… PT00…     98       98       98          98 100   100      100  
#>  5 PT002_MNC_PB… PT00…     18       18       18          18 100   100      100  
#>  6 PT002_MNC_PB… PT00…     15       15       15          15 100   100      100  
#>  7 PT001_MNC_PB… PT00…     28       28       28          28 100   100      100  
#>  8 PT002_MNC_BM… PT00…     33       33       33          33 100   100      100  
#>  9 PT001_MNC_BM… PT00…     21       54      114         147  38.9  18.4     14.3
#> 10 PT001_MNC_BM… PT00…     21      114       54         147  18.4  38.9     14.3
#> # ℹ 54 more rows
…
